<?xml version="1.0" encoding="UTF-8" standalone="no"?>
<!-- Created with Inkscape (http://www.inkscape.org/) -->

<svg
   xmlns:dc="http://purl.org/dc/elements/1.1/"
   xmlns:cc="http://creativecommons.org/ns#"
   xmlns:rdf="http://www.w3.org/1999/02/22-rdf-syntax-ns#"
   xmlns:svg="http://www.w3.org/2000/svg"
   xmlns="http://www.w3.org/2000/svg"
   xmlns:sodipodi="http://sodipodi.sourceforge.net/DTD/sodipodi-0.dtd"
   xmlns:inkscape="http://www.inkscape.org/namespaces/inkscape"
   width="210mm"
   height="297mm"
   viewBox="0 0 210 297"
   version="1.1"
   id="svg8"
   inkscape:version="0.92.2 5c3e80d, 2017-08-06"
   sodipodi:docname="PolarGrid.svg">
  <defs
     id="defs2">
    <marker
       inkscape:stockid="Arrow1Lend"
       orient="auto"
       refY="0.0"
       refX="0.0"
       id="Arrow1Lend"
       style="overflow:visible;"
       inkscape:isstock="true">
      <path
         id="path965"
         d="M 0.0,0.0 L 5.0,-5.0 L -12.5,0.0 L 5.0,5.0 L 0.0,0.0 z "
         style="fill-rule:evenodd;stroke:#000000;stroke-width:1pt;stroke-opacity:1;fill:#000000;fill-opacity:1"
         transform="scale(0.8) rotate(180) translate(12.5,0)" />
    </marker>
    <marker
       inkscape:stockid="Arrow1Lstart"
       orient="auto"
       refY="0.0"
       refX="0.0"
       id="Arrow1Lstart"
       style="overflow:visible"
       inkscape:isstock="true">
      <path
         id="path962"
         d="M 0.0,0.0 L 5.0,-5.0 L -12.5,0.0 L 5.0,5.0 L 0.0,0.0 z "
         style="fill-rule:evenodd;stroke:#000000;stroke-width:1pt;stroke-opacity:1;fill:#000000;fill-opacity:1"
         transform="scale(0.8) translate(12.5,0)" />
    </marker>
  </defs>
  <sodipodi:namedview
     id="base"
     pagecolor="#ffffff"
     bordercolor="#666666"
     borderopacity="1.0"
     inkscape:pageopacity="0.0"
     inkscape:pageshadow="2"
     inkscape:zoom="2.43004"
     inkscape:cx="441.17151"
     inkscape:cy="668.8209"
     inkscape:document-units="mm"
     inkscape:current-layer="layer1"
     showgrid="false"
     inkscape:window-width="1920"
     inkscape:window-height="1155"
     inkscape:window-x="0"
     inkscape:window-y="1"
     inkscape:window-maximized="1" />
  <metadata
     id="metadata5">
    <rdf:RDF>
      <cc:Work
         rdf:about="">
        <dc:format>image/svg+xml</dc:format>
        <dc:type
           rdf:resource="http://purl.org/dc/dcmitype/StillImage" />
        <dc:title></dc:title>
      </cc:Work>
    </rdf:RDF>
  </metadata>
  <g
     inkscape:label="Layer 1"
     inkscape:groupmode="layer"
     id="layer1">
    <path
       style="opacity:1;fill:none;fill-opacity:1;fill-rule:nonzero;stroke:#000000;stroke-width:0.35277778;stroke-miterlimit:4;stroke-dasharray:none;stroke-dashoffset:0;stroke-opacity:1"
       id="path815"
       sodipodi:type="arc"
       sodipodi:cx="105"
       sodipodi:cy="148.5"
       sodipodi:rx="25"
       sodipodi:ry="25"
       sodipodi:start="4.712389"
       sodipodi:end="0"
       d="m 105,123.5 a 25,25 0 0 1 25,25"
       sodipodi:open="true" />
    <path
       id="circle817"
       style="opacity:1;fill:none;fill-opacity:1;fill-rule:nonzero;stroke:#000000;stroke-width:0.35277778;stroke-miterlimit:4;stroke-dasharray:none;stroke-dashoffset:0;stroke-opacity:1"
       sodipodi:type="arc"
       sodipodi:cx="105"
       sodipodi:cy="148.5"
       sodipodi:rx="34.512985"
       sodipodi:ry="34.512985"
       sodipodi:start="4.712389"
       sodipodi:end="0"
       d="M 105,113.98701 A 34.512985,34.512985 0 0 1 139.51299,148.5"
       sodipodi:open="true" />
    <path
       style="opacity:1;fill:none;fill-opacity:1;fill-rule:nonzero;stroke:#000000;stroke-width:0.35277778;stroke-miterlimit:4;stroke-dasharray:none;stroke-dashoffset:0;stroke-opacity:1"
       id="circle819"
       sodipodi:type="arc"
       sodipodi:cx="105"
       sodipodi:cy="148.5"
       sodipodi:rx="44.373837"
       sodipodi:ry="44.373837"
       sodipodi:start="4.712389"
       sodipodi:end="0"
       d="M 105,104.12616 A 44.373837,44.373837 0 0 1 149.37384,148.5"
       sodipodi:open="true" />
    <path
       id="circle821"
       style="opacity:1;fill:none;fill-opacity:1;fill-rule:nonzero;stroke:#000000;stroke-width:0.35277778;stroke-miterlimit:4;stroke-dasharray:none;stroke-dashoffset:0;stroke-opacity:1"
       sodipodi:type="arc"
       sodipodi:cx="105"
       sodipodi:cy="148.5"
       sodipodi:rx="54.566193"
       sodipodi:ry="54.566193"
       sodipodi:start="4.712389"
       sodipodi:end="0"
       d="M 105,93.933807 A 54.566193,54.566193 0 0 1 159.56619,148.5"
       sodipodi:open="true" />
    <path
       style="opacity:1;fill:none;fill-opacity:1;fill-rule:nonzero;stroke:#000000;stroke-width:0.70555556;stroke-miterlimit:4;stroke-dasharray:none;stroke-dashoffset:0;stroke-opacity:1"
       id="circle823"
       sodipodi:type="arc"
       sodipodi:cx="105"
       sodipodi:cy="148.5"
       sodipodi:rx="64.48732"
       sodipodi:ry="64.48732"
       sodipodi:start="4.712389"
       sodipodi:end="0"
       d="M 105,84.01268 A 64.48732,64.48732 0 0 1 169.48732,148.5"
       sodipodi:open="true" />
    <path
       id="circle825"
       style="opacity:1;fill:none;fill-opacity:1;fill-rule:nonzero;stroke:#000000;stroke-width:0.70555556;stroke-miterlimit:4;stroke-dasharray:none;stroke-dashoffset:0;stroke-opacity:1"
       sodipodi:type="arc"
       sodipodi:cx="105"
       sodipodi:cy="148.5"
       sodipodi:rx="14.791279"
       sodipodi:ry="14.791279"
       sodipodi:start="4.712389"
       sodipodi:end="0"
       d="M 105,133.70872 A 14.791279,14.791279 0 0 1 119.79128,148.5"
       sodipodi:open="true" />
    <path
       style="fill:none;fill-rule:evenodd;stroke:#000000;stroke-width:0.35277778;stroke-linecap:butt;stroke-linejoin:miter;stroke-miterlimit:4;stroke-dasharray:none;stroke-opacity:1"
       d="m 104.74025,148.07052 62.55767,-16.45587"
       id="path831"
       inkscape:connector-curvature="0"
       sodipodi:nodetypes="cc"
       inkscape:transform-center-x="-38.210605"
       inkscape:transform-center-y="-10.549976" />
    <path
       inkscape:transform-center-y="-20.080126"
       inkscape:transform-center-x="-34.178075"
       sodipodi:nodetypes="cc"
       inkscape:connector-curvature="0"
       id="path833"
       d="m 104.74025,148.07052 56.05743,-31.97621"
       style="fill:none;fill-rule:evenodd;stroke:#000000;stroke-width:0.35277778;stroke-linecap:butt;stroke-linejoin:miter;stroke-miterlimit:4;stroke-dasharray:none;stroke-opacity:1" />
    <path
       style="fill:none;fill-rule:evenodd;stroke:#000000;stroke-width:0.35277778;stroke-linecap:butt;stroke-linejoin:miter;stroke-miterlimit:4;stroke-dasharray:none;stroke-opacity:1"
       d="M 104.74025,148.07052 150.50197,102.7852"
       id="path835"
       inkscape:connector-curvature="0"
       sodipodi:nodetypes="cc"
       inkscape:transform-center-x="-27.816365"
       inkscape:transform-center-y="-28.241846" />
    <path
       inkscape:transform-center-y="-34.478935"
       inkscape:transform-center-x="-19.55902"
       sodipodi:nodetypes="cc"
       inkscape:connector-curvature="0"
       id="path837"
       d="M 104.74025,148.07052 137.11243,92.594311"
       style="fill:none;fill-rule:evenodd;stroke:#000000;stroke-width:0.35277778;stroke-linecap:butt;stroke-linejoin:miter;stroke-miterlimit:4;stroke-dasharray:none;stroke-opacity:1" />
    <path
       style="fill:none;fill-rule:evenodd;stroke:#000000;stroke-width:0.35277778;stroke-linecap:butt;stroke-linejoin:miter;stroke-miterlimit:4;stroke-dasharray:none;stroke-opacity:1"
       d="M 104.74025,148.07052 121.54153,86.216136"
       id="path839"
       inkscape:connector-curvature="0"
       sodipodi:nodetypes="cc"
       inkscape:transform-center-x="-9.96876"
       inkscape:transform-center-y="-38.366343" />
    <circle
       style="opacity:1;fill:#000000;fill-opacity:1;fill-rule:nonzero;stroke:#000000;stroke-width:0.2439546;stroke-miterlimit:4;stroke-dasharray:none;stroke-dashoffset:0;stroke-opacity:1"
       id="path841"
       cx="152.25519"
       cy="121.16747"
       r="0.87802267" />
    <circle
       r="0.87802267"
       cy="109.76218"
       cx="143.72519"
       id="circle843"
       style="opacity:1;fill:#000000;fill-opacity:1;fill-rule:nonzero;stroke:#000000;stroke-width:0.2439546;stroke-miterlimit:4;stroke-dasharray:none;stroke-dashoffset:0;stroke-opacity:1" />
    <circle
       style="opacity:1;fill:#000000;fill-opacity:1;fill-rule:nonzero;stroke:#000000;stroke-width:0.2439546;stroke-miterlimit:4;stroke-dasharray:none;stroke-dashoffset:0;stroke-opacity:1"
       id="circle845"
       cx="132.41574"
       cy="101.23217"
       r="0.87802267" />
    <circle
       r="0.87802267"
       cy="95.864975"
       cx="118.99775"
       id="circle847"
       style="opacity:1;fill:#000000;fill-opacity:1;fill-rule:nonzero;stroke:#000000;stroke-width:0.2439546;stroke-miterlimit:4;stroke-dasharray:none;stroke-dashoffset:0;stroke-opacity:1" />
    <circle
       style="opacity:1;fill:#000000;fill-opacity:1;fill-rule:nonzero;stroke:#000000;stroke-width:0.2439546;stroke-miterlimit:4;stroke-dasharray:none;stroke-dashoffset:0;stroke-opacity:1"
       id="circle849"
       cx="116.21831"
       cy="105.25757"
       r="0.87802267" />
    <circle
       r="0.87802267"
       cy="109.76218"
       cx="126.9527"
       id="circle851"
       style="opacity:1;fill:#000000;fill-opacity:1;fill-rule:nonzero;stroke:#000000;stroke-width:0.2439546;stroke-miterlimit:4;stroke-dasharray:none;stroke-dashoffset:0;stroke-opacity:1" />
    <circle
       style="opacity:1;fill:#000000;fill-opacity:1;fill-rule:nonzero;stroke:#000000;stroke-width:0.2439546;stroke-miterlimit:4;stroke-dasharray:none;stroke-dashoffset:0;stroke-opacity:1"
       id="circle853"
       cx="136.15361"
       cy="116.95039"
       r="0.87802267" />
    <circle
       r="0.87802267"
       cy="126.24714"
       cx="143.34181"
       id="circle855"
       style="opacity:1;fill:#000000;fill-opacity:1;fill-rule:nonzero;stroke:#000000;stroke-width:0.2439546;stroke-miterlimit:4;stroke-dasharray:none;stroke-dashoffset:0;stroke-opacity:1" />
    <circle
       style="opacity:1;fill:#000000;fill-opacity:1;fill-rule:nonzero;stroke:#000000;stroke-width:0.2439546;stroke-miterlimit:4;stroke-dasharray:none;stroke-dashoffset:0;stroke-opacity:1"
       id="circle857"
       cx="147.75058"
       cy="136.98152"
       r="0.87802267" />
    <circle
       r="0.87802267"
       cy="134.20209"
       cx="157.43069"
       id="circle859"
       style="opacity:1;fill:#000000;fill-opacity:1;fill-rule:nonzero;stroke:#000000;stroke-width:0.2439546;stroke-miterlimit:4;stroke-dasharray:none;stroke-dashoffset:0;stroke-opacity:1" />
    <circle
       style="opacity:1;fill:#000000;fill-opacity:1;fill-rule:nonzero;stroke:#000000;stroke-width:0.2439546;stroke-miterlimit:4;stroke-dasharray:none;stroke-dashoffset:0;stroke-opacity:1"
       id="circle861"
       cx="138.26215"
       cy="139.18591"
       r="0.87802267" />
    <circle
       r="0.87802267"
       cy="141.67783"
       cx="129.25293"
       id="circle863"
       style="opacity:1;fill:#000000;fill-opacity:1;fill-rule:nonzero;stroke:#000000;stroke-width:0.2439546;stroke-miterlimit:4;stroke-dasharray:none;stroke-dashoffset:0;stroke-opacity:1" />
    <circle
       style="opacity:1;fill:#000000;fill-opacity:1;fill-rule:nonzero;stroke:#000000;stroke-width:0.2439546;stroke-miterlimit:4;stroke-dasharray:none;stroke-dashoffset:0;stroke-opacity:1"
       id="circle865"
       cx="126.37765"
       cy="136.0231"
       r="0.87802267" />
    <circle
       r="0.87802267"
       cy="130.94344"
       cx="135.09933"
       id="circle867"
       style="opacity:1;fill:#000000;fill-opacity:1;fill-rule:nonzero;stroke:#000000;stroke-width:0.2439546;stroke-miterlimit:4;stroke-dasharray:none;stroke-dashoffset:0;stroke-opacity:1" />
    <circle
       style="opacity:1;fill:#000000;fill-opacity:1;fill-rule:nonzero;stroke:#000000;stroke-width:0.2439546;stroke-miterlimit:4;stroke-dasharray:none;stroke-dashoffset:0;stroke-opacity:1"
       id="circle869"
       cx="129.15709"
       cy="124.04276"
       r="0.87802267" />
    <circle
       r="0.87802267"
       cy="118.77141"
       cx="122.06472"
       id="circle871"
       style="opacity:1;fill:#000000;fill-opacity:1;fill-rule:nonzero;stroke:#000000;stroke-width:0.2439546;stroke-miterlimit:4;stroke-dasharray:none;stroke-dashoffset:0;stroke-opacity:1" />
    <circle
       style="opacity:1;fill:#000000;fill-opacity:1;fill-rule:nonzero;stroke:#000000;stroke-width:0.2439546;stroke-miterlimit:4;stroke-dasharray:none;stroke-dashoffset:0;stroke-opacity:1"
       id="circle873"
       cx="113.91808"
       cy="115.41691"
       r="0.87802267" />
    <circle
       r="0.87802267"
       cy="118.77141"
       cx="122.06472"
       id="circle875"
       style="opacity:1;fill:#000000;fill-opacity:1;fill-rule:nonzero;stroke:#000000;stroke-width:0.2439546;stroke-miterlimit:4;stroke-dasharray:none;stroke-dashoffset:0;stroke-opacity:1" />
    <circle
       r="0.87802267"
       cy="124.47609"
       cx="111.18859"
       id="circle877"
       style="opacity:1;fill:#000000;fill-opacity:1;fill-rule:nonzero;stroke:#000000;stroke-width:0.2439546;stroke-miterlimit:4;stroke-dasharray:none;stroke-dashoffset:0;stroke-opacity:1" />
    <circle
       style="opacity:1;fill:#000000;fill-opacity:1;fill-rule:nonzero;stroke:#000000;stroke-width:0.2439546;stroke-miterlimit:4;stroke-dasharray:none;stroke-dashoffset:0;stroke-opacity:1"
       id="circle879"
       cx="117.27258"
       cy="126.8222"
       r="0.87802267" />
    <circle
       r="0.87802267"
       cy="130.65591"
       cx="122.35225"
       id="circle881"
       style="opacity:1;fill:#000000;fill-opacity:1;fill-rule:nonzero;stroke:#000000;stroke-width:0.2439546;stroke-miterlimit:4;stroke-dasharray:none;stroke-dashoffset:0;stroke-opacity:1" />
    <path
       style="fill:#cccccc;fill-rule:evenodd;stroke:#000000;stroke-width:0.70555556;stroke-linecap:butt;stroke-linejoin:miter;stroke-miterlimit:4;stroke-dasharray:none;stroke-opacity:1"
       d="m 104.79114,148.19293 64.76858,0.0956"
       id="path829"
       inkscape:connector-curvature="0"
       sodipodi:nodetypes="cc" />
    <circle
       r="0.87802267"
       cy="148.24072"
       cx="169.24532"
       id="circle885"
       style="opacity:1;fill:#cccccc;fill-opacity:1;fill-rule:nonzero;stroke:#000000;stroke-width:0.2439546;stroke-miterlimit:4;stroke-dasharray:none;stroke-dashoffset:0;stroke-opacity:1" />
    <circle
       r="0.87802267"
       cy="148.24072"
       cx="159.40526"
       id="circle887"
       style="opacity:1;fill:#cccccc;fill-opacity:1;fill-rule:nonzero;stroke:#000000;stroke-width:0.2439546;stroke-miterlimit:4;stroke-dasharray:none;stroke-dashoffset:0;stroke-opacity:1"
       inkscape:transform-center-x="-9.8977022"
       inkscape:transform-center-y="-0.38437679" />
    <circle
       inkscape:transform-center-y="-0.38437679"
       inkscape:transform-center-x="-9.8977022"
       style="opacity:1;fill:#cccccc;fill-opacity:1;fill-rule:nonzero;stroke:#000000;stroke-width:0.2439546;stroke-miterlimit:4;stroke-dasharray:none;stroke-dashoffset:0;stroke-opacity:1"
       id="circle889"
       cx="149.56519"
       cy="148.24072"
       r="0.87802267" />
    <circle
       r="0.87802267"
       cy="148.24072"
       cx="139.72513"
       id="circle891"
       style="opacity:1;fill:#cccccc;fill-opacity:1;fill-rule:nonzero;stroke:#000000;stroke-width:0.2439546;stroke-miterlimit:4;stroke-dasharray:none;stroke-dashoffset:0;stroke-opacity:1"
       inkscape:transform-center-x="-9.8977022"
       inkscape:transform-center-y="-0.38437679" />
    <circle
       inkscape:transform-center-y="-0.38437679"
       inkscape:transform-center-x="-9.8977022"
       style="opacity:1;fill:#cccccc;fill-opacity:1;fill-rule:nonzero;stroke:#000000;stroke-width:0.2439546;stroke-miterlimit:4;stroke-dasharray:none;stroke-dashoffset:0;stroke-opacity:1"
       id="circle893"
       cx="129.88507"
       cy="148.24072"
       r="0.87802267" />
    <path
       id="circle895"
       style="opacity:1;fill:#cccccc;fill-opacity:1;fill-rule:nonzero;stroke:#000000;stroke-width:0.2439546;stroke-miterlimit:4;stroke-dasharray:none;stroke-dashoffset:0;stroke-opacity:1"
       inkscape:transform-center-x="-9.8977022"
       inkscape:transform-center-y="-0.38437679"
       r="0.87802267"
       cy="148.24072"
       cx="120.04503" />
    <path
       inkscape:connector-curvature="0"
       id="path906"
       d="m 105.42304,84.011197 -0.68279,64.059323"
       style="fill:none;fill-rule:evenodd;stroke:#000000;stroke-width:0.70555556;stroke-linecap:butt;stroke-linejoin:miter;stroke-miterlimit:4;stroke-dasharray:none;stroke-opacity:1"
       sodipodi:nodetypes="cc" />
    <circle
       style="opacity:1;fill:#cccccc;fill-opacity:1;fill-rule:nonzero;stroke:#000000;stroke-width:0.2439546;stroke-miterlimit:4;stroke-dasharray:none;stroke-dashoffset:0;stroke-opacity:1"
       id="circle908"
       cx="133.54878"
       cy="105.1442"
       transform="matrix(0,1,1,0,0,0)"
       r="0.87802267" />
    <circle
       inkscape:transform-center-y="-0.38437679"
       inkscape:transform-center-x="-9.8977022"
       style="opacity:1;fill:#cccccc;fill-opacity:1;fill-rule:nonzero;stroke:#000000;stroke-width:0.2439546;stroke-miterlimit:4;stroke-dasharray:none;stroke-dashoffset:0;stroke-opacity:1"
       id="circle910"
       cx="123.49097"
       cy="105.47083"
       r="0.87802267"
       transform="matrix(0,1,1,0,0,0)" />
    <circle
       r="0.87802267"
       cy="105.47083"
       cx="113.65089"
       id="circle912"
       style="opacity:1;fill:#cccccc;fill-opacity:1;fill-rule:nonzero;stroke:#000000;stroke-width:0.2439546;stroke-miterlimit:4;stroke-dasharray:none;stroke-dashoffset:0;stroke-opacity:1"
       inkscape:transform-center-x="-9.8977022"
       inkscape:transform-center-y="-0.38437679"
       transform="matrix(0,1,1,0,0,0)" />
    <circle
       inkscape:transform-center-y="-0.38437679"
       inkscape:transform-center-x="-9.8977022"
       style="opacity:1;fill:#cccccc;fill-opacity:1;fill-rule:nonzero;stroke:#000000;stroke-width:0.2439546;stroke-miterlimit:4;stroke-dasharray:none;stroke-dashoffset:0;stroke-opacity:1"
       id="circle914"
       cx="103.81084"
       cy="105.47083"
       r="0.87802267"
       transform="matrix(0,1,1,0,0,0)" />
    <circle
       r="0.87802267"
       cy="105.47083"
       cx="93.970779"
       id="circle916"
       style="opacity:1;fill:#cccccc;fill-opacity:1;fill-rule:nonzero;stroke:#000000;stroke-width:0.2439546;stroke-miterlimit:4;stroke-dasharray:none;stroke-dashoffset:0;stroke-opacity:1"
       inkscape:transform-center-x="-9.8977022"
       inkscape:transform-center-y="-0.38437679"
       transform="matrix(0,1,1,0,0,0)" />
    <circle
       inkscape:transform-center-y="-0.38437679"
       inkscape:transform-center-x="-9.8977022"
       style="opacity:1;fill:#ffffff;fill-opacity:1;fill-rule:nonzero;stroke:#000000;stroke-width:0.2439546;stroke-miterlimit:4;stroke-dasharray:none;stroke-dashoffset:0;stroke-opacity:1"
       id="circle918"
       cx="84.130737"
       cy="105.47083"
       r="0.87802267"
       transform="matrix(0,1,1,0,0,0)" />
    <circle
       transform="matrix(0,1,1,0,0,0)"
       r="0.87802267"
       cy="108.49356"
       cx="134.01358"
       id="circle936"
       style="opacity:1;fill:#000000;fill-opacity:1;fill-rule:nonzero;stroke:#000000;stroke-width:0.2439546;stroke-miterlimit:4;stroke-dasharray:none;stroke-dashoffset:0;stroke-opacity:1" />
    <circle
       style="opacity:1;fill:#000000;fill-opacity:1;fill-rule:nonzero;stroke:#000000;stroke-width:0.2439546;stroke-miterlimit:4;stroke-dasharray:none;stroke-dashoffset:0;stroke-opacity:1"
       id="circle938"
       cx="135.51782"
       cy="112.14297"
       r="0.87802267"
       transform="matrix(0,1,1,0,0,0)" />
    <circle
       transform="matrix(0,1,1,0,0,0)"
       r="0.87802267"
       cy="115.2632"
       cx="137.858"
       id="circle940"
       style="opacity:1;fill:#000000;fill-opacity:1;fill-rule:nonzero;stroke:#000000;stroke-width:0.2439546;stroke-miterlimit:4;stroke-dasharray:none;stroke-dashoffset:0;stroke-opacity:1" />
    <circle
       style="opacity:1;fill:#000000;fill-opacity:1;fill-rule:nonzero;stroke:#000000;stroke-width:0.2439546;stroke-miterlimit:4;stroke-dasharray:none;stroke-dashoffset:0;stroke-opacity:1"
       id="circle942"
       cx="140.88074"
       cy="117.60338"
       r="0.87802267"
       transform="matrix(0,1,1,0,0,0)" />
    <circle
       transform="matrix(0,1,1,0,0,0)"
       r="0.87802267"
       cy="119.261"
       cx="144.48851"
       id="circle944"
       style="opacity:1;fill:#000000;fill-opacity:1;fill-rule:nonzero;stroke:#000000;stroke-width:0.2439546;stroke-miterlimit:4;stroke-dasharray:none;stroke-dashoffset:0;stroke-opacity:1" />
    <circle
       style="opacity:1;fill:#ffffff;fill-opacity:1;fill-rule:nonzero;stroke:#000000;stroke-width:0.2439546;stroke-miterlimit:4;stroke-dasharray:none;stroke-dashoffset:0;stroke-opacity:1"
       id="circle946"
       cx="131.95168"
       cy="167.13712"
       r="0.87802267"
       transform="matrix(0,1,1,0,0,0)" />
    <circle
       transform="matrix(0,1,1,0,0,0)"
       r="0.87802267"
       cy="160.79913"
       cx="116.3505"
       id="circle948"
       style="opacity:1;fill:#ffffff;fill-opacity:1;fill-rule:nonzero;stroke:#000000;stroke-width:0.2439546;stroke-miterlimit:4;stroke-dasharray:none;stroke-dashoffset:0;stroke-opacity:1" />
    <circle
       style="opacity:1;fill:#ffffff;fill-opacity:1;fill-rule:nonzero;stroke:#000000;stroke-width:0.2439546;stroke-miterlimit:4;stroke-dasharray:none;stroke-dashoffset:0;stroke-opacity:1"
       id="circle950"
       cx="102.992"
       cy="150.36584"
       r="0.87802267"
       transform="matrix(0,1,1,0,0,0)" />
    <circle
       transform="matrix(0,1,1,0,0,0)"
       r="0.87802267"
       cy="137.20235"
       cx="92.461205"
       id="circle952"
       style="opacity:1;fill:#ffffff;fill-opacity:1;fill-rule:nonzero;stroke:#000000;stroke-width:0.2439546;stroke-miterlimit:4;stroke-dasharray:none;stroke-dashoffset:0;stroke-opacity:1" />
    <circle
       style="opacity:1;fill:#ffffff;fill-opacity:1;fill-rule:nonzero;stroke:#000000;stroke-width:0.2439546;stroke-miterlimit:4;stroke-dasharray:none;stroke-dashoffset:0;stroke-opacity:1"
       id="circle954"
       cx="86.220734"
       cy="121.79619"
       r="0.87802267"
       transform="matrix(0,1,1,0,0,0)" />
    <text
       xml:space="preserve"
       style="font-style:normal;font-variant:normal;font-weight:normal;font-stretch:normal;font-size:7.05555534px;line-height:4.23333311px;font-family:Symbol;-inkscape-font-specification:Symbol;text-align:start;letter-spacing:0px;word-spacing:0px;writing-mode:lr-tb;text-anchor:start;fill:#000000;fill-opacity:1;stroke:none;stroke-width:0.26458332px;stroke-linecap:butt;stroke-linejoin:miter;stroke-opacity:1;"
       x="149.96631"
       y="91.552002"
       id="text958"><tspan
         sodipodi:role="line"
         id="tspan956"
         x="149.96631"
         y="95.893188"
         style="stroke-width:0.26458332px;-inkscape-font-specification:Symbol;font-family:Symbol;font-weight:normal;font-style:normal;font-stretch:normal;font-variant:normal;" /></text>
    <path
       sodipodi:open="true"
       d="M 165.19706,113.74521 A 69.509575,69.509575 0 0 1 174.50957,148.5"
       sodipodi:end="0"
       sodipodi:start="5.7595865"
       sodipodi:ry="69.509575"
       sodipodi:rx="69.509575"
       sodipodi:cy="148.5"
       sodipodi:cx="105"
       sodipodi:type="arc"
       id="path960"
       style="opacity:1;fill:none;fill-opacity:1;fill-rule:nonzero;stroke:#000000;stroke-width:0.17638889;stroke-miterlimit:4;stroke-dasharray:none;stroke-dashoffset:0;stroke-opacity:1;marker-start:url(#Arrow1Lstart)" />
    <path
       inkscape:connector-curvature="0"
       id="path1280"
       d="m 119.92549,152.95546 28.96267,0.0956"
       style="fill:#000000;fill-rule:evenodd;stroke:#000000;stroke-width:0.17638889;stroke-linecap:butt;stroke-linejoin:miter;stroke-miterlimit:4;stroke-dasharray:none;stroke-opacity:1;marker-end:url(#Arrow1Lend)"
       sodipodi:nodetypes="cc" />
    <text
       xml:space="preserve"
       style="font-style:normal;font-variant:normal;font-weight:normal;font-stretch:normal;font-size:7.05555534px;line-height:4.23333311px;font-family:Symbol;-inkscape-font-specification:Symbol;text-align:start;letter-spacing:0px;word-spacing:0px;writing-mode:lr-tb;text-anchor:start;fill:#000000;fill-opacity:1;stroke:none;stroke-width:0.26458332px;stroke-linecap:butt;stroke-linejoin:miter;stroke-opacity:1"
       x="145.23375"
       y="156.95154"
       id="text1442"><tspan
         sodipodi:role="line"
         id="tspan1440"
         x="145.23375"
         y="156.95154"
         style="font-style:normal;font-variant:normal;font-weight:normal;font-stretch:normal;font-size:4.23333311px;font-family:Symbol;-inkscape-font-specification:Symbol;stroke-width:0.26458332px">r</tspan></text>
    <text
       id="text1476"
       y="130.6382"
       x="174.7466"
       style="font-style:normal;font-variant:normal;font-weight:normal;font-stretch:normal;font-size:7.05555534px;line-height:4.23333311px;font-family:Symbol;-inkscape-font-specification:Symbol;text-align:start;letter-spacing:0px;word-spacing:0px;writing-mode:lr-tb;text-anchor:start;fill:#000000;fill-opacity:1;stroke:none;stroke-width:0.26458332px;stroke-linecap:butt;stroke-linejoin:miter;stroke-opacity:1;"
       xml:space="preserve"><tspan
         style="stroke-width:0.26458332px;-inkscape-font-specification:Symbol;font-family:Symbol;font-weight:normal;font-style:normal;font-stretch:normal;font-variant:normal;"
         y="134.97939"
         x="174.7466"
         id="tspan1474"
         sodipodi:role="line" /></text>
    <text
       xml:space="preserve"
       style="font-style:normal;font-variant:normal;font-weight:normal;font-stretch:normal;font-size:7.05555534px;line-height:4.23333311px;font-family:Symbol;-inkscape-font-specification:Symbol;text-align:start;letter-spacing:0px;word-spacing:0px;writing-mode:lr-tb;text-anchor:start;fill:#000000;fill-opacity:1;stroke:none;stroke-width:0.26458332px;stroke-linecap:butt;stroke-linejoin:miter;stroke-opacity:1"
       x="168.55383"
       y="117.19267"
       id="text1480"><tspan
         sodipodi:role="line"
         id="tspan1478"
         x="168.55383"
         y="117.19267"
         style="font-style:normal;font-variant:normal;font-weight:normal;font-stretch:normal;font-size:4.23333311px;font-family:Helvetica;-inkscape-font-specification:Helvetica;stroke-width:0.26458332px">θ</tspan></text>
    <text
       xml:space="preserve"
       style="font-style:normal;font-variant:normal;font-weight:normal;font-stretch:normal;font-size:3.52777778px;line-height:100%;font-family:Helvetica;-inkscape-font-specification:Helvetica;text-align:start;letter-spacing:0px;word-spacing:0px;writing-mode:lr-tb;text-anchor:start;fill:#000000;fill-opacity:1;stroke:none;stroke-width:0.26458332px;stroke-linecap:butt;stroke-linejoin:miter;stroke-opacity:1;"
       x="138.15077"
       y="118.06821"
       id="text1484"><tspan
         sodipodi:role="line"
         id="tspan1482"
         x="138.15077"
         y="118.06821"
         style="font-size:3.52777778px;line-height:100%;stroke-width:0.26458332px;">u(i,j)</tspan></text>
    <text
       id="text1488"
       y="111.58263"
       x="145.30443"
       style="font-style:normal;font-variant:normal;font-weight:normal;font-stretch:normal;font-size:3.52777767px;line-height:100%;font-family:Helvetica;-inkscape-font-specification:Helvetica;text-align:start;letter-spacing:0px;word-spacing:0px;writing-mode:lr-tb;text-anchor:start;fill:#000000;fill-opacity:1;stroke:none;stroke-width:0.26458332px;stroke-linecap:butt;stroke-linejoin:miter;stroke-opacity:1"
       xml:space="preserve"><tspan
         style="font-size:3.52777767px;line-height:100%;stroke-width:0.26458332px"
         y="111.58263"
         x="145.30443"
         id="tspan1486"
         sodipodi:role="line">u(i,j+1)</tspan></text>
    <text
       xml:space="preserve"
       style="font-style:normal;font-variant:normal;font-weight:normal;font-stretch:normal;font-size:3.52777767px;line-height:100%;font-family:Helvetica;-inkscape-font-specification:Helvetica;text-align:start;letter-spacing:0px;word-spacing:0px;writing-mode:lr-tb;text-anchor:start;fill:#000000;fill-opacity:1;stroke:none;stroke-width:0.26458332px;stroke-linecap:butt;stroke-linejoin:miter;stroke-opacity:1"
       x="130.82954"
       y="125.27808"
       id="text1492"><tspan
         sodipodi:role="line"
         id="tspan1490"
         x="130.82954"
         y="125.27808"
         style="font-size:3.52777767px;line-height:100%;stroke-width:0.26458332px">u(i,j-1)</tspan></text>
    <text
       id="text1496"
       y="110.38538"
       x="128.51886"
       style="font-style:normal;font-variant:normal;font-weight:normal;font-stretch:normal;font-size:3.52777767px;line-height:100%;font-family:Helvetica;-inkscape-font-specification:Helvetica;text-align:start;letter-spacing:0px;word-spacing:0px;writing-mode:lr-tb;text-anchor:start;fill:#000000;fill-opacity:1;stroke:none;stroke-width:0.26458332px;stroke-linecap:butt;stroke-linejoin:miter;stroke-opacity:1"
       xml:space="preserve"><tspan
         style="font-size:3.52777767px;line-height:100%;stroke-width:0.26458332px"
         y="110.38538"
         x="128.51886"
         id="tspan1494"
         sodipodi:role="line">u(i+1,j)</tspan></text>
    <text
       xml:space="preserve"
       style="font-style:normal;font-variant:normal;font-weight:normal;font-stretch:normal;font-size:3.52777767px;line-height:100%;font-family:Helvetica;-inkscape-font-specification:Helvetica;text-align:start;letter-spacing:0px;word-spacing:0px;writing-mode:lr-tb;text-anchor:start;fill:#000000;fill-opacity:1;stroke:none;stroke-width:0.26458332px;stroke-linecap:butt;stroke-linejoin:miter;stroke-opacity:1"
       x="144.32988"
       y="128.20062"
       id="text1500"><tspan
         sodipodi:role="line"
         id="tspan1498"
         x="144.32988"
         y="128.20062"
         style="font-size:3.52777767px;line-height:100%;stroke-width:0.26458332px">u(i-1,j)</tspan></text>
    <g
       id="g1527"
       transform="translate(6.7201057,62.155381)">
      <text
         id="text1504"
         y="89.786522"
         x="149.98203"
         style="font-style:normal;font-variant:normal;font-weight:normal;font-stretch:normal;font-size:3.52777767px;line-height:100%;font-family:Helvetica;-inkscape-font-specification:Helvetica;text-align:start;letter-spacing:0px;word-spacing:0px;writing-mode:lr-tb;text-anchor:start;fill:#000000;fill-opacity:1;stroke:none;stroke-width:0.26458332px;stroke-linecap:butt;stroke-linejoin:miter;stroke-opacity:1"
         xml:space="preserve"><tspan
           style="font-size:3.52777767px;line-height:100%;stroke-width:0.26458332px"
           y="89.786522"
           x="149.98203"
           id="tspan1502"
           sodipodi:role="line">∂u</tspan></text>
      <text
         xml:space="preserve"
         style="font-style:normal;font-variant:normal;font-weight:normal;font-stretch:normal;font-size:3.52777767px;line-height:100%;font-family:Helvetica;-inkscape-font-specification:Helvetica;text-align:start;letter-spacing:0px;word-spacing:0px;writing-mode:lr-tb;text-anchor:start;fill:#000000;fill-opacity:1;stroke:none;stroke-width:0.26458332px;stroke-linecap:butt;stroke-linejoin:miter;stroke-opacity:1"
         x="149.98203"
         y="93.990082"
         id="text1508"><tspan
           sodipodi:role="line"
           id="tspan1506"
           x="149.98203"
           y="93.990082"
           style="font-size:3.52777767px;line-height:100%;stroke-width:0.26458332px">∂θ</tspan></text>
      <path
         inkscape:connector-curvature="0"
         id="path1514"
         d="m 150.034,90.613298 h 3.71968 v 0.121623"
         style="fill:none;fill-rule:evenodd;stroke:#000000;stroke-width:0.26458332px;stroke-linecap:butt;stroke-linejoin:miter;stroke-opacity:1" />
      <text
         id="text1518"
         y="91.512466"
         x="154.03535"
         style="font-style:normal;font-variant:normal;font-weight:normal;font-stretch:normal;font-size:7.05555534px;line-height:4.23333311px;font-family:Helvetica;-inkscape-font-specification:Helvetica;text-align:start;letter-spacing:0px;word-spacing:0px;writing-mode:lr-tb;text-anchor:start;fill:#000000;fill-opacity:1;stroke:none;stroke-width:0.26458332px;stroke-linecap:butt;stroke-linejoin:miter;stroke-opacity:1"
         xml:space="preserve"><tspan
           style="font-size:3.52777767px;line-height:26.45833397px;stroke-width:0.26458332px"
           y="91.512466"
           x="154.03535"
           id="tspan1516"
           sodipodi:role="line">=0</tspan></text>
    </g>
    <g
       id="g1543"
       transform="translate(-54.533765,13.281148)">
      <text
         xml:space="preserve"
         style="font-style:normal;font-variant:normal;font-weight:normal;font-stretch:normal;font-size:3.52777767px;line-height:100%;font-family:Helvetica;-inkscape-font-specification:Helvetica;text-align:start;letter-spacing:0px;word-spacing:0px;writing-mode:lr-tb;text-anchor:start;fill:#000000;fill-opacity:1;stroke:none;stroke-width:0.26458332px;stroke-linecap:butt;stroke-linejoin:miter;stroke-opacity:1"
         x="149.98203"
         y="89.786522"
         id="text1531"><tspan
           sodipodi:role="line"
           id="tspan1529"
           x="149.98203"
           y="89.786522"
           style="font-size:3.52777767px;line-height:100%;stroke-width:0.26458332px">∂u</tspan></text>
      <text
         id="text1535"
         y="93.990082"
         x="149.98203"
         style="font-style:normal;font-variant:normal;font-weight:normal;font-stretch:normal;font-size:3.52777767px;line-height:100%;font-family:Helvetica;-inkscape-font-specification:Helvetica;text-align:start;letter-spacing:0px;word-spacing:0px;writing-mode:lr-tb;text-anchor:start;fill:#000000;fill-opacity:1;stroke:none;stroke-width:0.26458332px;stroke-linecap:butt;stroke-linejoin:miter;stroke-opacity:1"
         xml:space="preserve"><tspan
           style="font-size:3.52777767px;line-height:100%;stroke-width:0.26458332px"
           y="93.990082"
           x="149.98203"
           id="tspan1533"
           sodipodi:role="line">∂θ</tspan></text>
      <path
         style="fill:none;fill-rule:evenodd;stroke:#000000;stroke-width:0.26458332px;stroke-linecap:butt;stroke-linejoin:miter;stroke-opacity:1"
         d="m 150.034,90.613298 h 3.71968 v 0.121623"
         id="path1537"
         inkscape:connector-curvature="0" />
      <text
         xml:space="preserve"
         style="font-style:normal;font-variant:normal;font-weight:normal;font-stretch:normal;font-size:7.05555534px;line-height:4.23333311px;font-family:Helvetica;-inkscape-font-specification:Helvetica;text-align:start;letter-spacing:0px;word-spacing:0px;writing-mode:lr-tb;text-anchor:start;fill:#000000;fill-opacity:1;stroke:none;stroke-width:0.26458332px;stroke-linecap:butt;stroke-linejoin:miter;stroke-opacity:1"
         x="154.03535"
         y="91.512466"
         id="text1541"><tspan
           sodipodi:role="line"
           id="tspan1539"
           x="154.03535"
           y="91.512466"
           style="font-size:3.52777767px;line-height:26.45833397px;stroke-width:0.26458332px">=0</tspan></text>
    </g>
    <text
       xml:space="preserve"
       style="font-style:normal;font-variant:normal;font-weight:normal;font-stretch:normal;font-size:7.05555534px;line-height:4.23333311px;font-family:Helvetica;-inkscape-font-specification:Helvetica;text-align:start;letter-spacing:0px;word-spacing:0px;writing-mode:lr-tb;text-anchor:start;fill:#000000;fill-opacity:1;stroke:none;stroke-width:0.26458332px;stroke-linecap:butt;stroke-linejoin:miter;stroke-opacity:1"
       x="168.98552"
       y="-41.953545"
       id="text1549"
       transform="rotate(46.80079)"
       inkscape:transform-center-x="-1.2007562"
       inkscape:transform-center-y="-4.4855575"><tspan
         sodipodi:role="line"
         id="tspan1547"
         x="168.98552"
         y="-41.953545"
         style="font-size:3.52777767px;stroke-width:0.26458332px">u(5,θ)=5 cos θ</tspan></text>
    <text
       inkscape:transform-center-y="1.6239414"
       inkscape:transform-center-x="1.0184367"
       transform="rotate(1.5487671)"
       id="text1553"
       y="149.24873"
       x="101.43253"
       style="font-style:normal;font-variant:normal;font-weight:normal;font-stretch:normal;font-size:7.05555534px;line-height:4.23333311px;font-family:Helvetica;-inkscape-font-specification:Helvetica;text-align:start;letter-spacing:0px;word-spacing:0px;writing-mode:lr-tb;text-anchor:start;fill:#000000;fill-opacity:1;stroke:none;stroke-width:0.26458332px;stroke-linecap:butt;stroke-linejoin:miter;stroke-opacity:1"
       xml:space="preserve"><tspan
         style="font-size:3.52777767px;stroke-width:0.26458332px"
         y="149.24873"
         x="101.43253"
         id="tspan1551"
         sodipodi:role="line">u(0,θ)=0</tspan></text>
    <circle
       style="opacity:1;fill:#f2f2f2;fill-opacity:1;fill-rule:nonzero;stroke:#000000;stroke-width:0.2439546;stroke-miterlimit:4;stroke-dasharray:none;stroke-dashoffset:0;stroke-opacity:1"
       id="circle924"
       cx="148.09274"
       cy="104.70181"
       r="0.87802267"
       transform="matrix(0,1,1,0,0,0)" />
  </g>
</svg>
